Utility for Handling magnitude Word Embeddings • apportita
…
apportita::slice_index(conn, index = c(20, 100, 600))
#> # A tibble: 3 × 21
#>   key     dim_0  dim_1    dim_2   dim_3  dim_4  dim_5  dim_6  dim_7 dim_8  dim_9
#>   <chr>   <dbl>  <dbl>    <dbl>   <dbl>  <dbl>  <dbl>  <dbl>  <dbl> <dbl>  <dbl>
#> 1 yawni… -0.185  0.354  0.120    0.0251 -0.269 0.278  0.130   0.345 0.277 0.0802
#> 2 dane   -0.245 -0.329  0.353    0.382  -0.288 0.0833 0.0476 -0.254 0.186 0.385 
#> 3 drenc…  0.186 -0.121 -0.00184 -0.343  -0.268 0.235  0.0297  0.333 0.286 0.259 
#> # … with 10 more variables: dim_10 <dbl>, dim_11 <dbl>, dim_12 <dbl>,
#> #   dim_13 <dbl>, dim_14 <dbl>, dim_15 <dbl>, dim_16 <dbl>, dim_17 <dbl>,
#> #   dim_18 <dbl>, dim_19 <dbl>

apportita::slice_frac(conn, frac = .01)
#> # A tibble: 127 × 21
#>    key           dim_0   dim_1   dim_2   dim_3   dim_4    dim_5    dim_6   dim_7
#>    <chr>         <dbl>   <dbl>   <dbl>   <dbl>   <dbl>    <dbl>    <dbl>   <dbl>
#>  1 flipping     0.344  -0.310  -0.0268 -0.195   0.0926  0.142    0.266    0.216 
#>  2 dern        -0.104  -0.281   0.324  -0.168   0.0829 -0.257   -0.217    0.316 
#>  3 mexican      0.450   0.0287 -0.186  -0.296  -0.102  -0.222   -0.0810   0.304 
#>  4 supports    -0.0775  0.192   0.0801  0.0655  0.202  -0.217   -0.106   -0.373 
#>  5 slave        0.477  -0.0774 -0.153  -0.268  -0.102  -0.191   -0.0314   0.308 
#>  6 burns        0.126   0.104  -0.0768 -0.281   0.118  -0.00677  0.00832  0.121 
#>  7 competitive  0.154   0.0976 -0.113   0.133   0.195   0.227    0.306   -0.0258
#>  8 renaissance -0.237  -0.382  -0.343  -0.0237 -0.252  -0.318   -0.308   -0.113 
#>  9 singin       0.0710 -0.403   0.121  -0.276  -0.443  -0.205   -0.0251   0.105 
#> 10 kurosawa     0.305   0.0496 -0.137  -0.300   0.0214 -0.107   -0.0189   0.244 
#> # … with 117 more rows, and 12 more variables: dim_8 <dbl>, dim_9 <dbl>,
#> #   dim_10 <dbl>, dim_11 <dbl>, dim_12 <dbl>, dim_13 <dbl>, dim_14 <dbl>,
#> #   dim_15 <dbl>, dim_16 <dbl>, dim_17 <dbl>, dim_18 <dbl>, dim_19 <dbl>
…
