…
apportita::slice_index(conn, index = c(20, 100, 600))
#> # A tibble: 3 × 21
#>   key     dim_0  dim_1    dim_2   dim_3  dim_4  dim_5  dim_6  dim_7 dim_8  dim_9
#>   <chr>   <dbl>  <dbl>    <dbl>   <dbl>  <dbl>  <dbl>  <dbl>  <dbl> <dbl>  <dbl>
#> 1 yawni… -0.185  0.354  0.120    0.0251 -0.269 0.278  0.130   0.345 0.277 0.0802
#> 2 dane   -0.245 -0.329  0.353    0.382  -0.288 0.0833 0.0476 -0.254 0.186 0.385 
#> 3 drenc…  0.186 -0.121 -0.00184 -0.343  -0.268 0.235  0.0297  0.333 0.286 0.259 
#> # … with 10 more variables: dim_10 <dbl>, dim_11 <dbl>, dim_12 <dbl>,
#> #   dim_13 <dbl>, dim_14 <dbl>, dim_15 <dbl>, dim_16 <dbl>, dim_17 <dbl>,
#> #   dim_18 <dbl>, dim_19 <dbl>

apportita::slice_frac(conn, frac = .01)
#> # A tibble: 127 × 21
#>    key           dim_0   dim_1   dim_2   dim_3    dim_4    dim_5   dim_6   dim_7
#>    <chr>         <dbl>   <dbl>   <dbl>   <dbl>    <dbl>    <dbl>   <dbl>   <dbl>
#>  1 evoke        0.0277 -0.308   0.261   0.376  -0.200   -0.332   -0.362  -0.204 
#>  2 punch        0.312   0.160  -0.384  -0.363  -0.149   -0.285   -0.0197  0.429 
#>  3 understand…  0.134  -0.0551  0.203  -0.0870 -0.0410   0.269   -0.249   0.195 
#>  4 elena        0.0424 -0.223   0.241   0.128   0.248    0.183    0.136   0.0188
#>  5 delight     -0.276   0.246  -0.198   0.331  -0.220    0.279   -0.0885 -0.282 
#>  6 blondes      0.0545  0.275  -0.0564  0.0818 -0.00529 -0.153    0.0395 -0.226 
#>  7 disgraceful -0.150   0.172   0.0701 -0.258  -0.308   -0.343   -0.0298 -0.271 
#>  8 counselor   -0.276  -0.240   0.340   0.307  -0.354   -0.360    0.322  -0.0357
#>  9 spree       -0.230   0.304   0.287  -0.115   0.304   -0.00479  0.0880  0.131 
#> 10 transferri…  0.148   0.0860  0.0664 -0.0100  0.331    0.329    0.144  -0.198 
#> # … with 117 more rows, and 12 more variables: dim_8 <dbl>, dim_9 <dbl>,
#> #   dim_10 <dbl>, dim_11 <dbl>, dim_12 <dbl>, dim_13 <dbl>, dim_14 <dbl>,
#> #   dim_15 <dbl>, dim_16 <dbl>, dim_17 <dbl>, dim_18 <dbl>, dim_19 <dbl>
```
…
